{
  "config": {
    "default": "es"
            },
  "language": {
    "es": {
      "#ml-title": "EDP",
      ".ml-home": "Inicio",
      ".ml-about": "Nosotros",
      ".ml-products": "Productos",
      ".ml-contact": "Contactanos",
      ".ml-lead-contact": "Lorem ipsum dolor sit amet, consectetur adipisicing elit, sed do eiusmod tempor incididunt ut labore et dolore magna aliqua.",
      ".ml-element-product": "articulos",
      ".ml-one-section-description": "Diversos productos",
      ".ml-one-section-description-content": "Manejamos un amplio stock, en toda nuestra variedad de artículos.",
      ".ml-two-section-description": "Excelentes precios",
      ".ml-two-section-description-content": "Disponemos de los mejores precios del mercado, ofreciéndote rentabilidad en tus proyectos.",
      ".ml-three-section-description": "Productos de calidad",
      ".ml-three-section-description-content": "Trabajamos con materia prima de calidad, ofreciéndote así productos de primera.",
      ".ml-tools": "Herramientas y accesorios de trabajo",
      ".ml-tools-content": "las herramientas |e necesitas para pintar",
      ".ml-tanks": "¡Gracias por preferirnos!",
      ".ml-btnwhoare": "¿Quienes somos?",
      ".ml-term": "Terminos y condiciones",
      ".ml-question": "Preguntas frecuentes",
      ".ml-follow": "Siguenos",
      ".ml-asknew": "¿Que hay de nuevo?",
      ".ml-answernew": "Lorem ipsum dolor sit amet, consectetur adipisicing elit, sed do eiusmod tempor incididunt ut labore et dolore magna aliqua.",
      ".ml-subscribe": "Subscribe!",
      ".ml-firma": "© 2018 EDP.",
      ".ml-pinturas": "Pinturas",
      ".ml-especiales": "Pinturas Especiales",
      ".ml-pintura-hospitalarias": "Pintura Hospitalarias",
      ".ml-pintura-temporada": "Pinturas de Temporada",
      ".ml-arquitectonicas": "Pinturas Arquitectónicas",
      ".ml-temporada": "Pinturas de Temporada",
      ".ml-tools-accessories": "Herramientas y Accesorios",
      ".ml-sheets": "Laminas de Gymsun ",
      ".ml-lorem": "Lorem ipsum",
      ".ml-page": "Paginas",
      ".ml-accesorios":"Accesorios",
      ".ml-faqsubtitulo1": "",
      ".ml-faqsubtitulo2": "",
      ".ml-faqpreguta1": "",
      ".ml-faqrespuesta1":"",
      ".ml-faqpreguta2": "",
      ".ml-faqpreguta3": "",
      ".ml-faqrespuesta2":"",
      ".ml-faqrespuesta3":"",
      ".ml-faqtitulo":"",
      ".ml-footerinstegram":"",
      ".ml-txtmute":"Lorem ipsum dolor sit amet, consectetur adipisicing elit, sed do eiusmod tempor incididunt ut labore et dolore magna aliqua.",
      ".ml-btnfootersuscribe":"¡Subscribete!",
      ".ml-somos": "¿Quienes somos?",
      ".ml-somosr": "Somos Especialidades del Pacifico Panamá, con 10 años en el mercado Panameño, especializándonos en pinturas especiales, productos de limpieza, laminas de gymsun, herramientas y accesorios. Ofrecemos  a nuestros clientes productos de la mayor calidad, rentabilidad y durabilidad; Para suplir las necesidades básicas de los grandes proyectos de construcción. Constantemente nos renovamos en las tendencias de nuestro rubro, manteniéndonos fieles a nuestros principios y valores corporativos.",
      ".ml-premium": "Pinturas Premium",
      ".ml-tittle-address": "<i class='fa fa-map-marker' style='margin-right: 10px;'></i>Direcció",
      ".ml-clear": "Limpiar",
      ".ml-total": "Total",
      ".ml-price": "Precio",
      ".ml-urb": "Urbanización Villa Zaita <br>Calle Principal<br>Procosa, Galeras<br>Nros. 6 y 7<br><strong>Ciudad de Panamá</strong>",
      ".ml-quantity": "Cantidad",
      ".ml-call": "<i class='fa fa-phone' style='margin-right: 10px;'></i>Llamanos",
      ".ml-contactsubcallus": "Lorem ipsum dolor sit amet, consectetur adipisicing elit, sed do eiusmod tempor incididunt ut labore et dolore magna aliqua.",
      ".ml-contactnumtelf": "+507 387.61.74 /387.61.75",
      ".ml-tittle-email": "<i class='fa fa-envelope' style='margin-right: 10px;'></i>Correo electrónico",
      ".ml-contactsubemail": "Lorem ipsum dolor sit amet, consectetur adipisicing elit.",
      ".ml-name": "Nombre",
      ".ml-lastname": "Apellido",
      ".ml-subject": "Asunto",
      ".ml-email": "Correo electronico",
      ".ml-message": "Mensaje",
      ".ml-finish": "Terminar cotización",
      ".ml-send-message": "Enviar mensaje",
      ".ml-tittle-list": "Articulos a cotizar",
      ".ml-subtittle-list": "Elemntos que ha seleccionado para cotizar"
    }
  }
}
